bartVis
…
Now we create a dataframe, containing the tree structure for all the trees, for both both models.

# create data frame of trees for BART model
bmTreesData <- bartTreeData(bartModel)

# create data frame of trees for dbarts model
dbTreesData <- dbartsTreeData(dbartModel)

Taking a look at both dataframe outputs:

bmTreesData
#> $structure
#> # A tibble: 72 × 11
#> # Groups:   iteration, treeNum [20]
#>    var   splitValue  node isLeaf leafValue childLeft childRight parent iteration
#>    <chr>      <dbl> <int> <lgl>      <dbl>     <dbl>      <dbl>  <dbl>     <dbl>
#>  1 x1         0.189     1 FALSE     NA             2          3     NA         1
#>  2 <NA>      NA         2 TRUE      -0.507        NA         NA      1         1
#>  3 x4         0.841     3 FALSE     NA             6          7      1         1
#>  4 <NA>      NA         6 TRUE      -0.801        NA         NA      3         1
#>  5 <NA>      NA         7 TRUE      -0.683        NA         NA      3         1
#>  6 x1         0.219     1 FALSE     NA             2          3     NA         1
#>  7 x10        0.381     2 FALSE     NA             4          5      1         1
#>  8 <NA>      NA         4 TRUE      -1.37         NA         NA      2         1
#>  9 <NA>      NA         5 TRUE      -0.844        NA         NA      2         1
#> 10 x2         0.195     3 FALSE     NA             6          7      1         1
#> # … with 62 more rows, and 2 more variables: treeNum <dbl>, label <chr>
#> 
#> $nMCMC
#> [1] 1
#> 
#> $nTree
#> [1] 20
#> 
#> $nVar
#> [1] 10
#> 
#> attr(,"class")
#> [1] "list" "bart"
dbTreesData
#> # A tibble: 62 × 9
#>    var   splitValue  node isLeaf leafValue iteration treeNum label           n
#>    <chr>      <dbl> <int> <lgl>      <dbl>     <int>   <int> <chr>       <int>
#>  1 x4         0.508     1 FALSE    NA              1       1 x4 ≤ 0.5078   200
#>  2 <NA>      NA         2 TRUE     -0.158          1       1 -0.1575       111
#>  3 <NA>      NA         3 TRUE     -0.0817         1       1 -0.0817        89
#>  4 x4         0.694     1 FALSE    NA              1       2 x4 ≤ 0.6938   200
#>  5 x2         0.602     2 FALSE    NA              1       2 x2 ≤ 0.602     60
#>  6 <NA>      NA         3 TRUE     -0.126          1       2 -0.1256        23
#>  7 x6         0.759     4 FALSE    NA              1       2 x6 ≤ 0.7592    37
#>  8 x4         0.449     5 FALSE    NA              1       2 x4 ≤ 0.4491     8
#>  9 <NA>      NA         6 TRUE     -0.0385         1       2 -0.0385         8
#> 10 <NA>      NA         7 TRUE     -0.0347         1       2 -0.0347         0
#> # … with 52 more rows
…
