bartMan • bartMan
…
#> x10      x10  1119 0.03122951 0.03109255 0.9956142 0.0009832327 0.02930238
#>        upperCI     lowerQ     median     upperQ
#> x1  0.22772929 0.20000000 0.22222222 0.25000000
#> x2  0.18266302 0.15625000 0.17948718 0.20000000
#> x3  0.16963099 0.13888889 0.17073171 0.19444444
#> x4  0.16239216 0.13888889 0.15625000 0.18181818
#> x5  0.11753865 0.08823529 0.11111111 0.13513514
#> x6  0.01872460 0.00000000 0.00000000 0.02857143
#> x7  0.03624653 0.02631579 0.02941176 0.05405405
#> x8  0.04985128 0.02777778 0.03225806 0.06250000
#> x9  0.02072164 0.00000000 0.00000000 0.02941176
#> x10 0.03315665 0.00000000 0.02777778 0.05555556
#> 
#> $Vint
#> # A tibble: 55 × 10
#>    var    count propMean      SD    CV       SE lowerQ median upperQ adjusted
#>    <chr>  <dbl>    <dbl>   <dbl> <dbl>    <dbl>  <dbl>  <dbl>  <dbl>    <dbl>
#>  1 x1:x1  1.96   0.0728  0.0282  0.388 0.000893 0.0588 0.0694 0.0833   0.0969
#>  2 x1:x2  2.75   0.101   0.0343  0.339 0.00108  0.0741 0.0938 0.12     0.299 
#>  3 x1:x3  0.843  0.0291  0.0263  0.904 0.000833 0      0.0345 0.0435   0     
#>  4 x1:x4  0.136  0.00463 0.0134  2.89  0.000423 0      0      0        0     
#>  5 x1:x5  1.20   0.0424  0.0419  0.988 0.00133  0      0.0357 0.0741   0.102 
#>  6 x1:x6  0.09   0.00328 0.0111  3.37  0.000350 0      0      0        0     
#>  7 x1:x7  0.058  0.00215 0.00887 4.13  0.000281 0      0      0        0     
#>  8 x1:x8  0.334  0.0124  0.0216  1.74  0.000683 0      0      0.0296   0.0156
#>  9 x1:x9  0.136  0.00523 0.0148  2.83  0.000468 0      0      0        0.0133
#> 10 x1:x10 0.105  0.00381 0.0124  3.25  0.000392 0      0      0        0     
#> # ℹ 45 more rows
…
#>   <chr> <int>     <dbl>   <dbl> <chr>         <dbl>    <dbl> <int>    <dbl>
#> 1 x3        1         1       1 x3  ≤  0.82  0.823         2    10     5.5 
#> 2 x1        2         1       1 x1  ≤  0.77  0.771         2     8     5.75
#> 3 <NA>      3         1       1 -0.04       -0.0433        2     7     5.86
#> 4 <NA>      4         1       1 0.02         0.0188        2     1     5   
#> 5 <NA>      5         1       1 -0.25       -0.252         2     2     4.5 
#>   obsNode    isStump
#>   <list>     <lgl>  
#> 1 <dbl [10]> FALSE  
#> 2 <dbl [8]>  FALSE  
#> 3 <dbl [7]>  FALSE  
#> 4 <dbl [1]>  FALSE  
#> 5 <dbl [2]>  FALSE  
#> #
#> # A tibble: 4 × 2
#>    from    to
#>   <int> <int>
#> 1     1     2
#> 2     2     3
#> 3     2     4
#> # ℹ 1 more row
…
